-- Merging decision tree log ---
manifest
ADDED from /Users/kristijanjurkovic/Developer/Racunarstvo/BudgetTracker/data/repo/category-repo/src/main/AndroidManifest.xml:2:1-50
INJECTED from /Users/kristijanjurkovic/Developer/Racunarstvo/BudgetTracker/data/repo/category-repo/src/main/AndroidManifest.xml:2:1-50
INJECTED from /Users/kristijanjurkovic/Developer/Racunarstvo/BudgetTracker/data/repo/category-repo/src/main/AndroidManifest.xml:2:1-50
	package
		ADDED from /Users/kristijanjurkovic/Developer/Racunarstvo/BudgetTracker/data/repo/category-repo/src/main/AndroidManifest.xml:2:11-48
		INJECTED from /Users/kristijanjurkovic/Developer/Racunarstvo/BudgetTracker/data/repo/category-repo/src/main/AndroidManifest.xml
		INJECTED from /Users/kristijanjurkovic/Developer/Racunarstvo/BudgetTracker/data/repo/category-repo/src/main/AndroidManifest.xml
	xmlns:android
		ADDED from /Users/kristijanjurkovic/Developer/Racunarstvo/BudgetTracker/data/repo/category-repo/src/main/AndroidManifest.xml:2:1-50
uses-sdk
INJECTED from /Users/kristijanjurkovic/Developer/Racunarstvo/BudgetTracker/data/repo/category-repo/src/main/AndroidManifest.xml reason: use-sdk injection requested
INJECTED from /Users/kristijanjurkovic/Developer/Racunarstvo/BudgetTracker/data/repo/category-repo/src/main/AndroidManifest.xml
INJECTED from /Users/kristijanjurkovic/Developer/Racunarstvo/BudgetTracker/data/repo/category-repo/src/main/AndroidManifest.xml
INJECTED from /Users/kristijanjurkovic/Developer/Racunarstvo/BudgetTracker/data/repo/category-repo/src/main/AndroidManifest.xml
INJECTED from /Users/kristijanjurkovic/Developer/Racunarstvo/BudgetTracker/data/repo/category-repo/src/main/AndroidManifest.xml
	android:targetSdkVersion
		INJECTED from /Users/kristijanjurkovic/Developer/Racunarstvo/BudgetTracker/data/repo/category-repo/src/main/AndroidManifest.xml
		ADDED from /Users/kristijanjurkovic/Developer/Racunarstvo/BudgetTracker/data/repo/category-repo/src/main/AndroidManifest.xml
		INJECTED from /Users/kristijanjurkovic/Developer/Racunarstvo/BudgetTracker/data/repo/category-repo/src/main/AndroidManifest.xml
	android:minSdkVersion
		INJECTED from /Users/kristijanjurkovic/Developer/Racunarstvo/BudgetTracker/data/repo/category-repo/src/main/AndroidManifest.xml
		ADDED from /Users/kristijanjurkovic/Developer/Racunarstvo/BudgetTracker/data/repo/category-repo/src/main/AndroidManifest.xml
		INJECTED from /Users/kristijanjurkovic/Developer/Racunarstvo/BudgetTracker/data/repo/category-repo/src/main/AndroidManifest.xml
